examples/verilator.vcd
$version Generated by VerilatedVcd $end
$date Wed Feb 23 22:15:03 2022 $end
$timescale 1ps $end

 $scope module top $end
  $var wire  1 ( clk $end
  $var wire 16 * cnt [15:0] $end
  $var wire  1 + random $end
  $var wire  1 ) reset $end
  $scope module hello $end
   $var wire  1 ( clk $end
   $var wire 16 * cnt [15:0] $end
   $var wire 16 # cnt_reg [15:0] $end
   $var wire  1 + random $end
   $var wire  1 $ random_v $end
   $var wire  1 ) reset $end
   $scope module lfsr_inst $end
    $var wire  1 ( clk $end
    $var wire  1 ' new_bit $end
    $var wire 16 & next_state_reg [15:0] $end
    $var wire  1 ) reset $end
    $var wire 16 % state_reg [15:0] $end
    $var wire  1 $ v $end
   $upscope $end
  $upscope $end
 $upscope $end
$enddefinitions $end


#1
b1000001101111000 #
1$
b1000111010111100 %
b0001110101111000 &
0'
1(
1)
b1000001101111000 *
1+
#2
0(
#3
b0000000000000000 #
b1111111111111111 %
b1111111111111110 &
1(
b0000000000000000 *
#4
0(
#5
1(
#6
0(
#7
1(
#8
0(
#9
1(
#10
0(
0)
#11
b0000000000000001 #
b1111111111111110 %
b1111111111111100 &
1(
b0000000000000001 *
#12
0(
#13
b0000000000000010 #
b1111111111111100 %
b1111111111111000 &
1(
b0000000000000010 *
#14
0(
#15
b0000000000000011 #
b1111111111111000 %
b1111111111110000 &
1(
b0000000000000011 *
#16
0(
#17
b0000000000000100 #
b1111111111110000 %
b1111111111100000 &
1(
b0000000000000100 *
#18
0(
#19
b0000000000000101 #
b1111111111100000 %
b1111111111000000 &
1(
b0000000000000101 *
#20
0(
#21
b0000000000000110 #
b1111111111000000 %
b1111111110000000 &
1(
b0000000000000110 *
#22
0(
#23
b0000000000000111 #
b1111111110000000 %
b1111111100000000 &
1(
b0000000000000111 *
#24
0(
#25
b0000000000001000 #
b1111111100000000 %
b1111111000000000 &
1(
b0000000000001000 *
#26
0(
#27
b0000000000001001 #
b1111111000000000 %
b1111110000000000 &
1(
b0000000000001001 *
#28
0(
#29
b0000000000001010 #
b1111110000000000 %
b1111100000000000 &
1(
b0000000000001010 *
#30
0(
#31
b0000000000001011 #
b1111100000000000 %
b1111000000000001 &
1'
1(
b0000000000001011 *
#32
0(
#33
b0000000000001100 #
b1111000000000001 %
b1110000000000011 &
1(
b0000000000001100 *
#34
0(
#35
b0000000000001101 #
b1110000000000011 %
b1100000000000110 &
0'
1(
b0000000000001101 *
#36
0(
#37
b0000000000001110 #
b1100000000000110 %
b1000000000001101 &
1'
1(
b0000000000001110 *
#38
0(
#39
b0000000000001111 #
b1000000000001101 %
b0000000000011011 &
1(
b0000000000001111 *
#40
0(
#41
b0000000000010000 #
0$
b0000000000011011 %
b0000000000110110 &
0'
1(
b0000000000010000 *
0+
#42
0(
#43
b0000000000010001 #
b0000000000110110 %
b0000000001101100 &
1(
b0000000000010001 *
#44
0(
#45
b0000000000010010 #
b0000000001101100 %
b0000000011011000 &
1(
b0000000000010010 *
#46
0(
#47
b0000000000010011 #
b0000000011011000 %
b0000000110110000 &
1(
b0000000000010011 *
#48
0(
#49
b0000000000010100 #
b0000000110110000 %
b0000001101100000 &
1(
b0000000000010100 *
#50
0(
#51
b0000000000010101 #
b0000001101100000 %
b0000011011000000 &
1(
b0000000000010101 *
#52
0(
#53
b0000000000010110 #
b0000011011000000 %
b0000110110000001 &
1'
1(
b0000000000010110 *
#54
0(
#55
b0000000000010111 #
b0000110110000001 %
b0001101100000011 &
1(
b0000000000010111 *
#56
0(
#57
b0000000000011000 #
b0001101100000011 %
b0011011000000111 &
1(
b0000000000011000 *
#58
0(
#59
b0000000000011001 #
b0011011000000111 %
b0110110000001111 &
1(
b0000000000011001 *
#60
0(
#61
b0000000000011010 #
b0110110000001111 %
b1101100000011110 &
0'
1(
b0000000000011010 *
#62
0(
#63
b0000000000011011 #
1$
b1101100000011110 %
b1011000000111100 &
1(
b0000000000011011 *
1+
#64
0(
#65
b0000000000011100 #
b1011000000111100 %
b0110000001111001 &
1'
1(
b0000000000011100 *
#66
0(
#67
b0000000000011101 #
0$
b0110000001111001 %
b1100000011110011 &
1(
b0000000000011101 *
0+
#68
0(
#69
b0000000000011110 #
1$
b1100000011110011 %
b1000000111100111 &
1(
b0000000000011110 *
1+
#70
0(
#71
b0000000000011111 #
b1000000111100111 %
b0000001111001111 &
1(
b0000000000011111 *
#72
0(
#73
b0000000000100000 #
0$
b0000001111001111 %
b0000011110011110 &
0'
1(
b0000000000100000 *
0+
#74
0(
#75
b0000000000100001 #
b0000011110011110 %
b0000111100111101 &
1'
1(
b0000000000100001 *
#76
0(
#77
b0000000000100010 #
b0000111100111101 %
b0001111001111011 &
1(
b0000000000100010 *
#78
0(
#79
b0000000000100011 #
b0001111001111011 %
b0011110011110110 &
0'
1(
b0000000000100011 *
#80
0(
#81
b0000000000100100 #
b0011110011110110 %
b0111100111101101 &
1'
1(
b0000000000100100 *
#82
0(
#83
b0000000000100101 #
b0111100111101101 %
b1111001111011010 &
0'
1(
b0000000000100101 *
#84
0(
#85
b0000000000100110 #
1$
b1111001111011010 %
b1110011110110101 &
1'
1(
b0000000000100110 *
1+
#86
0(
#87
b0000000000100111 #
b1110011110110101 %
b1100111101101011 &
1(
b0000000000100111 *
#88
0(
#89
b0000000000101000 #
b1100111101101011 %
b1001111011010110 &
0'
1(
b0000000000101000 *
#90
0(
#91
b0000000000101001 #
b1001111011010110 %
b0011110110101101 &
1'
1(
b0000000000101001 *
#92
0(
#93
b0000000000101010 #
0$
b0011110110101101 %
b0111101101011011 &
1(
b0000000000101010 *
0+
#94
0(
#95
b0000000000101011 #
b0111101101011011 %
b1111011010110110 &
0'
1(
b0000000000101011 *
#96
0(
#97
b0000000000101100 #
1$
b1111011010110110 %
b1110110101101100 &
1(
b0000000000101100 *
1+
#98
0(
#99
b0000000000101101 #
b1110110101101100 %
b1101101011011001 &
1'
1(
b0000000000101101 *
#100
0(
#101
b0000000000101110 #
b1101101011011001 %
b1011010110110010 &
0'
1(
b0000000000101110 *
#102
0(
#103
b0000000000101111 #
b1011010110110010 %
b0110101101100100 &
1(
b0000000000101111 *
#104
0(
#105
b0000000000110000 #
0$
b0110101101100100 %
b1101011011001001 &
1'
1(
b0000000000110000 *
0+
#106
0(
#107
b0000000000110001 #
1$
b1101011011001001 %
b1010110110010011 &
1(
b0000000000110001 *
1+
#108
0(
#109
b0000000000110010 #
b1010110110010011 %
b0101101100100111 &
1(
b0000000000110010 *
#110
0(
#111
b0000000000110011 #
0$
b0101101100100111 %
b1011011001001111 &
1(
b0000000000110011 *
0+
#112
0(
#113
b0000000000110100 #
1$
b1011011001001111 %
b0110110010011110 &
0'
1(
b0000000000110100 *
1+
#114
0(
#115
b0000000000110101 #
0$
b0110110010011110 %
b1101100100111100 &
1(
b0000000000110101 *
0+
#116
0(
#117
b0000000000110110 #
1$
b1101100100111100 %
b1011001001111000 &
1(
b0000000000110110 *
1+
#118
0(
#119
b0000000000110111 #
b1011001001111000 %
b0110010011110001 &
1'
1(
b0000000000110111 *
#120
0(
#121
b0000000000111000 #
0$
b0110010011110001 %
b1100100111100010 &
0'
1(
b0000000000111000 *
0+
#122
0(
#123
b0000000000111001 #
1$
b1100100111100010 %
b1001001111000101 &
1'
1(
b0000000000111001 *
1+
#124
0(
#125
b0000000000111010 #
b1001001111000101 %
b0010011110001010 &
0'
1(
b0000000000111010 *
#126
0(
#127
b0000000000111011 #
0$
b0010011110001010 %
b0100111100010100 &
1(
b0000000000111011 *
0+
#128
0(
#129
b0000000000111100 #
b0100111100010100 %
b1001111000101001 &
1'
1(
b0000000000111100 *
#130
0(
#131
b0000000000111101 #
1$
b1001111000101001 %
b0011110001010011 &
1(
b0000000000111101 *
1+
#132
0(
#133
b0000000000111110 #
0$
b0011110001010011 %
b0111100010100111 &
1(
b0000000000111110 *
0+
#134
0(
#135
b0000000000111111 #
b0111100010100111 %
b1111000101001110 &
0'
1(
b0000000000111111 *
#136
0(
#137
b0000000001000000 #
1$
b1111000101001110 %
b1110001010011101 &
1'
1(
b0000000001000000 *
1+
#138
0(
#139
b0000000001000001 #
b1110001010011101 %
b1100010100111010 &
0'
1(
b0000000001000001 *
#140
0(
#141
b0000000001000010 #
b1100010100111010 %
b1000101001110100 &
1(
b0000000001000010 *
#142
0(
#143
b0000000001000011 #
b1000101001110100 %
b0001010011101001 &
1'
1(
b0000000001000011 *
#144
0(
#145
b0000000001000100 #
0$
b0001010011101001 %
b0010100111010010 &
0'
1(
b0000000001000100 *
0+
#146
0(
#147
b0000000001000101 #
b0010100111010010 %
b0101001110100101 &
1'
1(
b0000000001000101 *
#148
0(
#149
b0000000001000110 #
b0101001110100101 %
b1010011101001011 &
1(
b0000000001000110 *
#150
0(
#151
b0000000001000111 #
1$
b1010011101001011 %
b0100111010010111 &
1(
b0000000001000111 *
1+
#152
0(
#153
b0000000001001000 #
0$
b0100111010010111 %
b1001110100101111 &
1(
b0000000001001000 *
0+
#154
0(
#155
b0000000001001001 #
1$
b1001110100101111 %
b0011101001011111 &
1(
b0000000001001001 *
1+
#156
0(
#157
b0000000001001010 #
0$
b0011101001011111 %
b0111010010111110 &
0'
1(
b0000000001001010 *
0+
#158
0(
#159
b0000000001001011 #
b0111010010111110 %
b1110100101111101 &
1'
1(
b0000000001001011 *
#160
0(
#161
b0000000001001100 #
1$
b1110100101111101 %
b1101001011111010 &
0'
1(
b0000000001001100 *
1+
#162
0(
#163
b0000000001001101 #
b1101001011111010 %
b1010010111110100 &
1(
b0000000001001101 *
#164
0(
#165
b0000000001001110 #
b1010010111110100 %
b0100101111101001 &
1'
1(
b0000000001001110 *
#166
0(
#167
b0000000001001111 #
0$
b0100101111101001 %
b1001011111010010 &
0'
1(
b0000000001001111 *
0+
#168
0(
#169
b0000000001010000 #
1$
b1001011111010010 %
b0010111110100101 &
1'
1(
b0000000001010000 *
1+
#170
0(
#171
b0000000001010001 #
0$
b0010111110100101 %
b0101111101001010 &
0'
1(
b0000000001010001 *
0+
#172
0(
#173
b0000000001010010 #
b0101111101001010 %
b1011111010010100 &
1(
b0000000001010010 *
#174
0(
#175
b0000000001010011 #
1$
b1011111010010100 %
b0111110100101000 &
1(
b0000000001010011 *
1+
#176
0(
#177
b0000000001010100 #
0$
b0111110100101000 %
b1111101001010001 &
1'
1(
b0000000001010100 *
0+
#178
0(
#179
b0000000001010101 #
1$
b1111101001010001 %
b1111010010100011 &
1(
b0000000001010101 *
1+
#180
0(
#181
b0000000001010110 #
b1111010010100011 %
b1110100101000110 &
0'
1(
b0000000001010110 *
#182
0(
#183
b0000000001010111 #
b1110100101000110 %
b1101001010001100 &
1(
b0000000001010111 *
#184
0(
#185
b0000000001011000 #
b1101001010001100 %
b1010010100011000 &
1(
b0000000001011000 *
#186
0(
#187
b0000000001011001 #
b1010010100011000 %
b0100101000110001 &
1'
1(
b0000000001011001 *
#188
0(
#189
b0000000001011010 #
0$
b0100101000110001 %
b1001010001100010 &
0'
1(
b0000000001011010 *
0+
#190
0(
#191
b0000000001011011 #
1$
b1001010001100010 %
b0010100011000101 &
1'
1(
b0000000001011011 *
1+
#192
0(
#193
b0000000001011100 #
0$
b0010100011000101 %
b0101000110001011 &
1(
b0000000001011100 *
0+
#194
0(
#195
b0000000001011101 #
b0101000110001011 %
b1010001100010111 &
1(
b0000000001011101 *
#196
0(
#197
b0000000001011110 #
1$
b1010001100010111 %
b0100011000101110 &
0'
1(
b0000000001011110 *
1+
#198
0(
#199
b0000000001011111 #
0$
b0100011000101110 %
b1000110001011101 &
1'
1(
b0000000001011111 *
0+
#200
0(
#201
b0000000001100000 #
1$
b1000110001011101 %
b0001100010111010 &
0'
1(
b0000000001100000 *
1+
#202
0(
#203
b0000000001100001 #
0$
b0001100010111010 %
b0011000101110101 &
1'
1(
b0000000001100001 *
0+
#204
0(
#205
b0000000001100010 #
b0011000101110101 %
b0110001011101010 &
0'
1(
b0000000001100010 *
#206
0(
#207
b0000000001100011 #
b0110001011101010 %
b1100010111010101 &
1'
1(
b0000000001100011 *
#208
0(
#209
b0000000001100100 #
1$
b1100010111010101 %
b1000101110101010 &
0'
1(
b0000000001100100 *
1+
#210
0(
#211
b0000000001100101 #
b1000101110101010 %
b0001011101010101 &
1'
1(
b0000000001100101 *
